<svg xmlns="http://www.w3.org/2000/svg" width="14.281" height="21.012" viewBox="0 0 14.281 21.012">
  <g id="help-circle_1_" data-name="help-circle (1)" transform="translate(-7.809 -5.988)">
    <path id="Trazado_28113" data-name="Trazado 28113" d="M9.09,11a6.2,6.2,0,0,1,6.869-3.921A6.05,6.05,0,0,1,21.09,13c0,4-6.175,6-6.175,6v3.132" transform="translate(0 0)" fill="none" stroke="#fff" stroke-linecap="round" stroke-linejoin="round" stroke-width="2"/>
    <circle id="Elipse_400" data-name="Elipse 400" cx="1" cy="1" r="1" transform="translate(13.917 25)" fill="#fff"/>
  </g>
</svg>
